﻿350 | 680 | 0
290, 720|425, 720
289, 600|424, 600
310, 515|450, 545
350, 455|475, 510
420, 400|590, 455
530, 350|689, 360
570, 300|700, 280
575, 250|700, 200
570, 200|645, 80
550, 145|565, 15
505, 115|480, 5
430, 114|370, 30
330, 210|260, 125
255, 230|190, 120
175, 205|135, 90
130, 210|35, 125
130, 311|10, 295
160, 370|35, 375
235, 470|105, 480
240, 550|115, 555
200, 650|100, 600
140, 695|35, 645
105, 720|0, 655
<290, 720|425, 720>