﻿20 | 650 | 90
0, 590|0, 710
70, 590|40, 710
140, 580|140, 690
200, 537|200, 651
287, 521|287, 636
360, 562|340, 635
431, 597|392, 663
472, 633|449, 704
550, 636|553, 706
629, 634|633, 708
708, 633|707, 706
777, 626|801, 687
833, 586|885, 635
866, 542|930, 567
873, 491|958, 496
870, 414|967, 419
908, 383|993, 386
908, 309|993, 310
909, 246|983, 245
890, 185|966, 143
853, 125|891, 47
775, 87|777, 23
737, 159|678, 79
739, 198|654, 158
755, 237|665, 246
800, 286|633, 323
846, 354|617, 351
837, 434|593, 362
757, 564|574, 373
561, 561|546, 404
430, 514|440, 442
324, 494|334, 433
249, 487|255, 427
171, 481|195, 424
96, 452|130, 398
31, 381|108, 373
52, 310|124, 343
152, 263|160, 340
278, 296|280, 344
419, 296|418, 340
497, 264|534, 322
512, 220|602, 228
513, 176|606, 148
492, 148|545, 81
455, 104|488, 46
415, 95|428, 22
343, 106|343, 50
273, 90|282, 20
184, 82|183, 16
88, 82|88, 16
0, 82|0, 16
<0, 590|0, 710>
<718, 371|777, 371>
<618, 376|642, 419>
<704, 457|734, 477>
<601, 483|639, 490>
<517, 483|519, 531>